\relax 
\@writefile{toc}{\contentsline {section}{\tocsection {}{1}{Project Description}}{1}}
\@writefile{toc}{\contentsline {paragraph}{\tocparagraph {}{}{\indent The system will consist of two pendulums in series with a motor at the fixed pivot. The goal of the project is to develop a control system to keep both pendulums vertical upright. At each time step the angle and angular velocity of each pendulum will be measured and the system will have to determine the optimal torque values for the motor to apply.}}{1}}
\@writefile{toc}{\contentsline {paragraph}{\tocparagraph {}{}{\indent As seen in the homework, the double pendulum has very complex motion, especially when at extreme angles. I think it would be very interesting to see what torques need to be applied to keep the pendulums at the unstable equilibrium and to swing the pendulums up from starting at the stable equilibrium. }}{1}}
\@writefile{toc}{\contentsline {section}{\tocsection {}{2}{Project Plan}}{1}}
\@writefile{toc}{\contentsline {subsection}{\tocsubsection {}{2.1}{Modifying the model}}{1}}
\@writefile{toc}{\contentsline {paragraph}{\tocparagraph {}{}{\indent This would build off of the double pendulum problem we did on the second homework. Adaptive Runge-Kutta needs the angular acceleration so the torque from the motor must be divided by the moment of inertia. We can calculate the moment of inertia to be:}}{1}}
\@writefile{toc}{\contentsline {paragraph}{\tocparagraph {}{}{\indent Now the angular acceleration due to the motor can be written as: }}{1}}
\@writefile{toc}{\contentsline {paragraph}{\tocparagraph {}{}{\indent The problem can now be solved using Adaptive Runga-Kutta method }}{1}}
\@writefile{toc}{\contentsline {subsection}{\tocsubsection {}{2.2}{Developing Control System}}{1}}
\@writefile{toc}{\contentsline {paragraph}{\tocparagraph {}{}{\indent Due to the complex nature of the double pendulum, I would like to use machine learning to develop the control system. Since there is no training data, the model would have to use reinforcement learning. }}{1}}
\newlabel{tocindent-1}{0pt}
\newlabel{tocindent0}{0pt}
\newlabel{tocindent1}{19.4667pt}
\newlabel{tocindent2}{32.18062pt}
\newlabel{tocindent3}{0pt}
\@writefile{toc}{\contentsline {section}{\tocsection {}{3}{Verification \& Further Work}}{2}}
\@writefile{toc}{\contentsline {paragraph}{\tocparagraph {}{}{\indent If the control system is successful, the two pendulums should remain vertical. I would also like to check that the initial energy of the system and energy added to the system by the motor is equal to the total energy at each time step.}}{2}}
\@writefile{toc}{\contentsline {paragraph}{\tocparagraph {}{}{\indent If possible, I would like to add an additional pendulums to the system and see if it still possible to maintain the unstable equilibrium. Additionally, it would be interesting to see how well the control system can adapt to random external forces, such as wind, or changes in the lengths of the pendulums or masses.}}{2}}
